Homework 6
…
Determine the 95% CI for r_squared and log(intercept_hat*tmin_hat)

weather_df_bootstrap_2 %>% 
  mutate(
    ci_lower_r_squared = quantile(r_squared, 0.025),
    ci_upper_r_squared = quantile(r_squared, 0.975),
    ci_lower_boot_log = quantile(boot_log, 0.025),
    ci_upper_boot_log = quantile(boot_log, 0.975),
  ) 

## # A tibble: 5,000 x 9
##    id    r_squared intercept  tmin boot_log ci_lower_r_squa ci_upper_r_squa
##    <chr>     <dbl>     <dbl> <dbl>    <dbl>            <dbl>            <dbl>
##  1 0001      0.913      7.16  1.02     1.99            0.894            0.928
##  2 0002      0.919      6.98  1.06     2.00            0.894            0.928
##  3 0003      0.907      7.48  1.03     2.04            0.894            0.928
##  4 0004      0.920      7.19  1.06     2.03            0.894            0.928
##  5 0005      0.914      7.43  1.03     2.04            0.894            0.928
##  6 0006      0.920      6.91  1.05     1.98            0.894            0.928
##  7 0007      0.911      7.48  1.03     2.04            0.894            0.928
##  8 0008      0.916      6.92  1.06     1.99            0.894            0.928
##  9 0009      0.900      7.46  1.04     2.05            0.894            0.928
## 10 0010      0.901      7.75  1.00     2.05            0.894            0.928
## #  with 4,990 more rows, and 2 more variables: ci_lower_boot_log <dbl>,
## #   ci_upper_boot_log <dbl>
…
